{"help": "http://opendata-crc.di.unisa.it/api/3/action/help_show?name=datastore_search", "success": true, "result": {"resource_id": "c717181c-4cd8-46f1-a2cd-41e1cfbb5922", "fields": [{"type": "int4", "id": "_id"}, {"type": "text", "id": "Lista"}, {"type": "numeric", "id": "Voti"}, {"type": "numeric", "id": "Voti (%)"}, {"type": "numeric", "id": "Seggi"}, {"type": "text", "id": "Provincia"}], "records": [{"Provincia": "Caserta", "Voti (%)": "0", "Voti": "0", "Seggi": "0", "_id": 1, "Lista": "Governo Civico"}, {"Provincia": "Caserta", "Voti (%)": "0", "Voti": "0", "Seggi": "0", "_id": 2, "Lista": "Partito Pensionati"}, {"Provincia": "Caserta", "Voti (%)": "0", "Voti": "0", "Seggi": "0", "_id": 3, "Lista": "Democrazia Federalista"}, {"Provincia": "Caserta", "Voti (%)": "0", "Voti": "0", "Seggi": "0", "_id": 4, "Lista": "Movimento Idea Sociale"}, {"Provincia": "Caserta", "Voti (%)": "0", "Voti": "0", "Seggi": "0", "_id": 5, "Lista": "Repubblicani Europei"}, {"Provincia": "Benevento", "Voti (%)": "0.65", "Voti": "1026", "Seggi": "0", "_id": 6, "Lista": "Democrazia Cristiana"}, {"Provincia": "Salerno", "Voti (%)": "1.77", "Voti": "10324", "Seggi": "0", "_id": 7, "Lista": "Comunisti Italiani"}, {"Provincia": "Avellino", "Voti (%)": "0.51", "Voti": "1127", "Seggi": "0", "_id": 8, "Lista": "Partito Repubblicano"}, {"Provincia": "Napoli", "Voti (%)": "8.49", "Voti": "124770", "Seggi": "2", "_id": 9, "Lista": "UDEUR"}, {"Provincia": "Avellino", "Voti (%)": "5.72", "Voti": "12648", "Seggi": "0", "_id": 10, "Lista": "SDI"}, {"Provincia": "Salerno", "Voti (%)": "2.18", "Voti": "12725", "Seggi": "0", "_id": 11, "Lista": "Italia dei valori"}, {"Provincia": "Salerno", "Voti (%)": "2.2", "Voti": "12830", "Seggi": "0", "_id": 12, "Lista": "Governo Civico"}, {"Provincia": "Avellino", "Voti (%)": "5.87", "Voti": "12958", "Seggi": "0", "_id": 13, "Lista": "Unione Di Centro"}, {"Provincia": "Napoli", "Voti (%)": "0.95", "Voti": "13976", "Seggi": "0", "_id": 14, "Lista": "Partito Repubblicano"}, {"Provincia": "Benevento", "Voti (%)": "9.45", "Voti": "14079", "Seggi": "1", "_id": 15, "Lista": "Forza Italia"}, {"Provincia": "Caserta", "Voti (%)": "3.1", "Voti": "14242", "Seggi": "1", "_id": 16, "Lista": "Nuovo PSI"}, {"Provincia": "Caserta", "Voti (%)": "3.34", "Voti": "15336", "Seggi": "0", "_id": 17, "Lista": "Alleanza Nazionale"}, {"Provincia": "Avellino", "Voti (%)": "0.7", "Voti": "1544", "Seggi": "0", "_id": 18, "Lista": "Movimento Idea Sociale"}, {"Provincia": "Napoli", "Voti (%)": "10.57", "Voti": "155309", "Seggi": "3", "_id": 19, "Lista": "Forza Italia"}, {"Provincia": "Benevento", "Voti (%)": "10.79", "Voti": "16077", "Seggi": "1", "_id": 20, "Lista": "Alleanza Nazionale"}, {"Provincia": "Napoli", "Voti (%)": "11.1", "Voti": "163129", "Seggi": "3", "_id": 21, "Lista": "Alleanza Nazionale"}, {"Provincia": "Avellino", "Voti (%)": "8", "Voti": "17691", "Seggi": "1", "_id": 22, "Lista": "Alleanza Nazionale"}, {"Provincia": "Caserta", "Voti (%)": "3.92", "Voti": "17995", "Seggi": "0", "_id": 23, "Lista": "Rifondazione"}, {"Provincia": "Avellino", "Voti (%)": "8.3", "Voti": "18341", "Seggi": "0", "_id": 24, "Lista": "UDEUR"}, {"Provincia": "Napoli", "Voti (%)": "1.26", "Voti": "18470", "Seggi": "0", "_id": 25, "Lista": "Repubblicani Europei"}, {"Provincia": "Napoli", "Voti (%)": "1.37", "Voti": "20124", "Seggi": "0", "_id": 26, "Lista": "Alternativa Sociale"}, {"Provincia": "Benevento", "Voti (%)": "13.74", "Voti": "20471", "Seggi": "0", "_id": 27, "Lista": "Democratici Sinistra"}, {"Provincia": "Salerno", "Voti (%)": "3.57", "Voti": "20825", "Seggi": "0", "_id": 28, "Lista": "Democrazia Federalista"}, {"Provincia": "Benevento", "Voti (%)": "14.73", "Voti": "21950", "Seggi": "0", "_id": 29, "Lista": "DL.LA MARGHERITA"}, {"Provincia": "Salerno", "Voti (%)": "0.38", "Voti": "2246", "Seggi": "0", "_id": 30, "Lista": "Partito Pensionati"}, {"Provincia": "Salerno", "Voti (%)": "3.9", "Voti": "22752", "Seggi": "1", "_id": 31, "Lista": "VERDI"}, {"Provincia": "Napoli", "Voti (%)": "15.69", "Voti": "230476", "Seggi": "4", "_id": 32, "Lista": "La Margherita"}, {"Provincia": "Benevento", "Voti (%)": "1.57", "Voti": "2344", "Seggi": "0", "_id": 33, "Lista": "FEDERAZIONE DEI VERDI"}, {"Provincia": "Avellino", "Voti (%)": "1.09", "Voti": "2401", "Seggi": "0", "_id": 34, "Lista": "Italia dei valori"}, {"Provincia": "Napoli", "Voti (%)": "16.55", "Voti": "243233", "Seggi": "5", "_id": 35, "Lista": "Democratici Sinistra"}, {"Provincia": "Salerno", "Voti (%)": "4.33", "Voti": "25285", "Seggi": "1", "_id": 36, "Lista": "Rifondazione Comunista"}, {"Provincia": "Avellino", "Voti (%)": "1.22", "Voti": "2707", "Seggi": "0", "_id": 37, "Lista": "Nuovo PSI"}, {"Provincia": "Avellino", "Voti (%)": "12.38", "Voti": "27353", "Seggi": "1", "_id": 38, "Lista": "Forza Italia"}, {"Provincia": "Caserta", "Voti (%)": "0.61", "Voti": "2801", "Seggi": "0", "_id": 39, "Lista": "Repubblicani"}, {"Provincia": "Avellino", "Voti (%)": "13.18", "Voti": "29132", "Seggi": "1", "_id": 40, "Lista": "Democratici Sinistra"}, {"Provincia": "Avellino", "Voti (%)": "1.41", "Voti": "3124", "Seggi": "0", "_id": 41, "Lista": "Alternativa Sociale"}, {"Provincia": "Avellino", "Voti (%)": "1.41", "Voti": "3126", "Seggi": "0", "_id": 42, "Lista": "Governo Civico"}, {"Provincia": "Benevento", "Voti (%)": "0.83", "Voti": "3145", "Seggi": "0", "_id": 43, "Lista": "ALTERNATIVA SOCIALE MUSSOLINI"}, {"Provincia": "Benevento", "Voti (%)": "2.13", "Voti": "3170", "Seggi": "0", "_id": 44, "Lista": "ITALIA VALORI - LISTA CONSUMATORI"}, {"Provincia": "Benevento", "Voti (%)": "2.14", "Voti": "3184", "Seggi": "0", "_id": 45, "Lista": "Comunisti Italiani"}, {"Provincia": "Napoli", "Voti (%)": "2.31", "Voti": "33996", "Seggi": "1", "_id": 46, "Lista": "Repubblicani"}, {"Provincia": "Caserta", "Voti (%)": "7.46", "Voti": "34246", "Seggi": "1", "_id": 47, "Lista": "SDI"}, {"Provincia": "Benevento", "Voti (%)": "2.33", "Voti": "3471", "Seggi": "0", "_id": 48, "Lista": "Rifondazione Comunista"}, {"Provincia": "Salerno", "Voti (%)": "5.95", "Voti": "34750", "Seggi": "1", "_id": 49, "Lista": "SDI"}, {"Provincia": "Benevento", "Voti (%)": "2.42", "Voti": "3612", "Seggi": "0", "_id": 50, "Lista": "Nuovo PSI"}], "_links": {"start": "/api/action/datastore_search?limit=50&resource_id=c717181c-4cd8-46f1-a2cd-41e1cfbb5922", "next": "/api/action/datastore_search?offset=50&limit=50&resource_id=c717181c-4cd8-46f1-a2cd-41e1cfbb5922"}, "limit": 50, "total": 98}}